info face="Architects Daughter" size=30 bold=0 italic=0 charset="" unicode=1 stretchH=100 smooth=1 aa=1 padding=0,0,0,0 spacing=2,2
common lineHeight=52 base=36 scaleW=512 scaleH=256 pages=1 packed=0 alphaChnl=0 redChnl=4 greenChnl=4 blueChnl=4
page id=0 file="ArchitectsDaughter_30.png"
chars count=106
char id=32   x=2     y=2     width=0     height=0     xoffset=0     yoffset=36    xadvance=15    page=0  chnl=0
char id=33   x=2     y=6     width=5     height=34    xoffset=0     yoffset=2     xadvance=5     page=0  chnl=0
char id=34   x=2     y=44    width=6     height=11    xoffset=2     yoffset=7     xadvance=9     page=0  chnl=0
char id=35   x=11    y=2     width=23    height=17    xoffset=2     yoffset=12    xadvance=24    page=0  chnl=0
char id=36   x=2     y=59    width=21    height=33    xoffset=0     yoffset=3     xadvance=21    page=0  chnl=0
char id=38   x=12    y=23    width=26    height=30    xoffset=-1    yoffset=6     xadvance=25    page=0  chnl=0
char id=39   x=38    y=2     width=4     height=7     xoffset=1     yoffset=13    xadvance=6     page=0  chnl=0
char id=40   x=2     y=96    width=10    height=32    xoffset=1     yoffset=3     xadvance=11    page=0  chnl=0
char id=41   x=2     y=132   width=12    height=30    xoffset=1     yoffset=6     xadvance=14    page=0  chnl=0
char id=42   x=16    y=96    width=19    height=23    xoffset=1     yoffset=10    xadvance=19    page=0  chnl=0
char id=43   x=27    y=57    width=19    height=18    xoffset=1     yoffset=17    xadvance=20    page=0  chnl=0
char id=44   x=27    y=79    width=6     height=8     xoffset=-1    yoffset=32    xadvance=7     page=0  chnl=0
char id=45   x=16    y=123   width=10    height=3     xoffset=1     yoffset=25    xadvance=12    page=0  chnl=0
char id=46   x=38    y=13    width=4     height=3     xoffset=0     yoffset=33    xadvance=5     page=0  chnl=0
char id=47   x=42    y=20    width=16    height=26    xoffset=1     yoffset=10    xadvance=17    page=0  chnl=0
char id=48   x=2     y=166   width=21    height=23    xoffset=1     yoffset=13    xadvance=23    page=0  chnl=0
char id=49   x=18    y=130   width=4     height=21    xoffset=0     yoffset=15    xadvance=5     page=0  chnl=0
char id=50   x=26    y=130   width=21    height=22    xoffset=1     yoffset=14    xadvance=22    page=0  chnl=0
char id=51   x=39    y=79    width=19    height=22    xoffset=1     yoffset=15    xadvance=20    page=0  chnl=0
char id=52   x=50    y=50    width=23    height=23    xoffset=3     yoffset=14    xadvance=26    page=0  chnl=0
char id=53   x=62    y=2     width=27    height=24    xoffset=0     yoffset=12    xadvance=27    page=0  chnl=0
char id=54   x=2     y=193   width=22    height=25    xoffset=1     yoffset=11    xadvance=24    page=0  chnl=0
char id=55   x=2     y=222   width=23    height=22    xoffset=1     yoffset=15    xadvance=24    page=0  chnl=0
char id=56   x=27    y=156   width=23    height=23    xoffset=1     yoffset=13    xadvance=24    page=0  chnl=0
char id=57   x=28    y=183   width=19    height=23    xoffset=1     yoffset=13    xadvance=22    page=0  chnl=0
char id=58   x=46    y=2     width=5     height=10    xoffset=1     yoffset=22    xadvance=6     page=0  chnl=0
char id=59   x=39    y=105   width=5     height=20    xoffset=-1    yoffset=23    xadvance=5     page=0  chnl=0
char id=60   x=62    y=30    width=14    height=16    xoffset=2     yoffset=18    xadvance=18    page=0  chnl=0
char id=61   x=48    y=105   width=16    height=9     xoffset=2     yoffset=22    xadvance=18    page=0  chnl=0
char id=62   x=62    y=77    width=15    height=16    xoffset=1     yoffset=19    xadvance=18    page=0  chnl=0
char id=63   x=51    y=118   width=19    height=27    xoffset=0     yoffset=10    xadvance=19    page=0  chnl=0
char id=64   x=80    y=30    width=37    height=27    xoffset=1     yoffset=9     xadvance=39    page=0  chnl=0
char id=65   x=29    y=210   width=24    height=27    xoffset=0     yoffset=10    xadvance=24    page=0  chnl=0
char id=66   x=54    y=149   width=25    height=25    xoffset=1     yoffset=11    xadvance=26    page=0  chnl=0
char id=67   x=54    y=178   width=26    height=25    xoffset=1     yoffset=11    xadvance=27    page=0  chnl=0
char id=68   x=93    y=2     width=23    height=24    xoffset=1     yoffset=12    xadvance=24    page=0  chnl=0
char id=69   x=120   y=2     width=21    height=24    xoffset=1     yoffset=11    xadvance=22    page=0  chnl=0
char id=70   x=57    y=207   width=25    height=24    xoffset=1     yoffset=12    xadvance=26    page=0  chnl=0
char id=71   x=74    y=97    width=24    height=27    xoffset=1     yoffset=12    xadvance=25    page=0  chnl=0
char id=72   x=81    y=61    width=22    height=27    xoffset=0     yoffset=9     xadvance=22    page=0  chnl=0
char id=73   x=83    y=128   width=3     height=22    xoffset=1     yoffset=14    xadvance=5     page=0  chnl=0
char id=74   x=84    y=154   width=19    height=24    xoffset=0     yoffset=12    xadvance=20    page=0  chnl=0
char id=75   x=102   y=92    width=21    height=27    xoffset=1     yoffset=9     xadvance=23    page=0  chnl=0
char id=76   x=107   y=61    width=24    height=26    xoffset=2     yoffset=10    xadvance=26    page=0  chnl=0
char id=77   x=121   y=30    width=30    height=25    xoffset=1     yoffset=11    xadvance=31    page=0  chnl=0
char id=78   x=102   y=123   width=22    height=27    xoffset=1     yoffset=9     xadvance=23    page=0  chnl=0
char id=79   x=145   y=2     width=24    height=22    xoffset=1     yoffset=13    xadvance=26    page=0  chnl=0
char id=80   x=127   y=91    width=22    height=23    xoffset=1     yoffset=13    xadvance=23    page=0  chnl=0
char id=81   x=135   y=59    width=25    height=24    xoffset=1     yoffset=12    xadvance=27    page=0  chnl=0
char id=82   x=155   y=28    width=24    height=24    xoffset=1     yoffset=12    xadvance=27    page=0  chnl=0
char id=83   x=86    y=182   width=23    height=23    xoffset=1     yoffset=13    xadvance=24    page=0  chnl=0
char id=84   x=173   y=2     width=24    height=22    xoffset=0     yoffset=15    xadvance=23    page=0  chnl=0
char id=85   x=107   y=154   width=20    height=23    xoffset=0     yoffset=13    xadvance=21    page=0  chnl=0
char id=86   x=128   y=118   width=23    height=25    xoffset=1     yoffset=11    xadvance=24    page=0  chnl=0
char id=87   x=86    y=209   width=35    height=28    xoffset=0     yoffset=8     xadvance=35    page=0  chnl=0
char id=88   x=113   y=181   width=21    height=24    xoffset=1     yoffset=12    xadvance=23    page=0  chnl=0
char id=89   x=153   y=87    width=20    height=26    xoffset=0     yoffset=11    xadvance=20    page=0  chnl=0
char id=90   x=164   y=56    width=28    height=22    xoffset=0     yoffset=14    xadvance=29    page=0  chnl=0
char id=91   x=125   y=209   width=14    height=34    xoffset=2     yoffset=5     xadvance=16    page=0  chnl=0
char id=92   x=183   y=28    width=19    height=23    xoffset=-1    yoffset=13    xadvance=19    page=0  chnl=0
char id=93   x=138   y=147   width=18    height=34    xoffset=-1    yoffset=6     xadvance=20    page=0  chnl=0
char id=94   x=29    y=247   width=10    height=7     xoffset=1     yoffset=10    xadvance=12    page=0  chnl=0
char id=95   x=2     y=248   width=23    height=6     xoffset=1     yoffset=30    xadvance=25    page=0  chnl=0
char id=96   x=18    y=156   width=5     height=5     xoffset=1     yoffset=13    xadvance=6     page=0  chnl=0
char id=97   x=57    y=235   width=19    height=18    xoffset=0     yoffset=18    xadvance=19    page=0  chnl=0
char id=98   x=143   y=185   width=20    height=28    xoffset=0     yoffset=9     xadvance=21    page=0  chnl=0
char id=99   x=201   y=2     width=23    height=17    xoffset=0     yoffset=19    xadvance=24    page=0  chnl=0
char id=100  x=143   y=217   width=19    height=30    xoffset=0     yoffset=6     xadvance=20    page=0  chnl=0
char id=101  x=155   y=117   width=20    height=18    xoffset=0     yoffset=19    xadvance=21    page=0  chnl=0
char id=102  x=177   y=82    width=23    height=31    xoffset=1     yoffset=5     xadvance=24    page=0  chnl=0
char id=103  x=166   y=217   width=18    height=32    xoffset=0     yoffset=20    xadvance=18    page=0  chnl=0
char id=104  x=160   y=139   width=17    height=25    xoffset=1     yoffset=11    xadvance=18    page=0  chnl=0
char id=105  x=167   y=168   width=4     height=24    xoffset=1     yoffset=12    xadvance=5     page=0  chnl=0
char id=106  x=175   y=168   width=12    height=41    xoffset=-5    yoffset=10    xadvance=7     page=0  chnl=0
char id=107  x=188   y=213   width=22    height=28    xoffset=1     yoffset=9     xadvance=24    page=0  chnl=0
char id=108  x=181   y=117   width=4     height=25    xoffset=1     yoffset=11    xadvance=6     page=0  chnl=0
char id=109  x=181   y=146   width=28    height=18    xoffset=1     yoffset=19    xadvance=29    page=0  chnl=0
char id=110  x=196   y=55    width=17    height=19    xoffset=1     yoffset=18    xadvance=19    page=0  chnl=0
char id=111  x=189   y=117   width=19    height=17    xoffset=2     yoffset=19    xadvance=21    page=0  chnl=0
char id=112  x=204   y=78    width=18    height=32    xoffset=3     yoffset=19    xadvance=22    page=0  chnl=0
char id=113  x=212   y=114   width=17    height=28    xoffset=1     yoffset=21    xadvance=19    page=0  chnl=0
char id=114  x=206   y=23    width=20    height=18    xoffset=1     yoffset=18    xadvance=21    page=0  chnl=0
char id=115  x=217   y=45    width=17    height=19    xoffset=1     yoffset=18    xadvance=19    page=0  chnl=0
char id=116  x=230   y=2     width=15    height=27    xoffset=0     yoffset=10    xadvance=15    page=0  chnl=0
char id=117  x=191   y=168   width=18    height=18    xoffset=0     yoffset=19    xadvance=19    page=0  chnl=0
char id=118  x=191   y=190   width=18    height=18    xoffset=1     yoffset=18    xadvance=19    page=0  chnl=0
char id=119  x=226   y=68    width=28    height=18    xoffset=2     yoffset=19    xadvance=30    page=0  chnl=0
char id=120  x=226   y=90    width=18    height=18    xoffset=0     yoffset=18    xadvance=18    page=0  chnl=0
char id=121  x=249   y=2     width=20    height=34    xoffset=0     yoffset=18    xadvance=21    page=0  chnl=0
char id=122  x=238   y=40    width=19    height=17    xoffset=0     yoffset=19    xadvance=19    page=0  chnl=0
char id=123  x=213   y=146   width=15    height=44    xoffset=1     yoffset=-2    xadvance=14    page=0  chnl=0
char id=124  x=214   y=194   width=3     height=40    xoffset=2     yoffset=0     xadvance=6     page=0  chnl=0
char id=125  x=221   y=194   width=15    height=42    xoffset=0     yoffset=2     xadvance=17    page=0  chnl=0
char id=126  x=80    y=247   width=16    height=7     xoffset=0     yoffset=11    xadvance=17    page=0  chnl=0
char id=264  x=232   y=146   width=26    height=34    xoffset=1     yoffset=2     xadvance=27    page=0  chnl=0
char id=265  x=233   y=112   width=23    height=26    xoffset=0     yoffset=10    xadvance=24    page=0  chnl=0
char id=284  x=258   y=61    width=24    height=36    xoffset=1     yoffset=3     xadvance=25    page=0  chnl=0
char id=285  x=273   y=2     width=18    height=42    xoffset=0     yoffset=10    xadvance=19    page=0  chnl=0
char id=292  x=260   y=101   width=22    height=37    xoffset=0     yoffset=-1    xadvance=22    page=0  chnl=0
char id=293  x=240   y=184   width=17    height=30    xoffset=1     yoffset=6     xadvance=18    page=0  chnl=0
char id=308  x=240   y=218   width=19    height=35    xoffset=1     yoffset=1     xadvance=21    page=0  chnl=0
char id=309  x=262   y=142   width=13    height=41    xoffset=-5    yoffset=10    xadvance=6     page=0  chnl=0
char id=348  x=263   y=187   width=23    height=31    xoffset=1     yoffset=5     xadvance=24    page=0  chnl=0
char id=349  x=263   y=222   width=17    height=27    xoffset=1     yoffset=10    xadvance=19    page=0  chnl=0
char id=364  x=284   y=222   width=20    height=26    xoffset=0     yoffset=10    xadvance=21    page=0  chnl=0
char id=365  x=279   y=142   width=18    height=22    xoffset=0     yoffset=15    xadvance=19    page=0  chnl=0
kernings count=0
