info face="Gentium Basic" size=20 bold=0 italic=0 charset="" unicode=1 stretchH=100 smooth=1 aa=1 padding=0,0,0,0 spacing=2,2
common lineHeight=23 base=17 scaleW=256 scaleH=128 pages=1 packed=0 alphaChnl=0 redChnl=4 greenChnl=4 blueChnl=4
page id=0 file="GenBasB_20.png"
chars count=105
char id=32   x=2     y=2     width=0     height=0     xoffset=0     yoffset=17    xadvance=5     page=0  chnl=0
char id=33   x=2     y=6     width=4     height=14    xoffset=1     yoffset=3     xadvance=6     page=0  chnl=0
char id=34   x=2     y=24    width=8     height=6     xoffset=1     yoffset=3     xadvance=9     page=0  chnl=0
char id=35   x=10    y=2     width=11    height=11    xoffset=0     yoffset=5     xadvance=10    page=0  chnl=0
char id=36   x=2     y=34    width=10    height=16    xoffset=0     yoffset=3     xadvance=10    page=0  chnl=0
char id=37   x=14    y=17    width=13    height=13    xoffset=1     yoffset=4     xadvance=15    page=0  chnl=0
char id=38   x=2     y=54    width=14    height=14    xoffset=1     yoffset=3     xadvance=14    page=0  chnl=0
char id=39   x=25    y=2     width=4     height=6     xoffset=1     yoffset=3     xadvance=5     page=0  chnl=0
char id=40   x=2     y=72    width=5     height=19    xoffset=1     yoffset=1     xadvance=7     page=0  chnl=0
char id=41   x=2     y=95    width=5     height=19    xoffset=0     yoffset=1     xadvance=7     page=0  chnl=0
char id=42   x=2     y=118   width=9     height=8     xoffset=0     yoffset=2     xadvance=9     page=0  chnl=0
char id=43   x=16    y=34    width=9     height=7     xoffset=-1    yoffset=8     xadvance=8     page=0  chnl=0
char id=44   x=11    y=72    width=4     height=7     xoffset=1     yoffset=14    xadvance=5     page=0  chnl=0
char id=45   x=25    y=12    width=7     height=1     xoffset=0     yoffset=11    xadvance=7     page=0  chnl=0
char id=46   x=16    y=45    width=3     height=3     xoffset=1     yoffset=14    xadvance=5     page=0  chnl=0
char id=47   x=11    y=83    width=10    height=19    xoffset=0     yoffset=1     xadvance=10    page=0  chnl=0
char id=48   x=15    y=106   width=8     height=12    xoffset=1     yoffset=5     xadvance=10    page=0  chnl=0
char id=49   x=20    y=52    width=8     height=12    xoffset=1     yoffset=5     xadvance=10    page=0  chnl=0
char id=50   x=29    y=34    width=8     height=12    xoffset=1     yoffset=5     xadvance=10    page=0  chnl=0
char id=51   x=31    y=17    width=8     height=12    xoffset=0     yoffset=5     xadvance=9     page=0  chnl=0
char id=52   x=25    y=68    width=10    height=12    xoffset=0     yoffset=5     xadvance=10    page=0  chnl=0
char id=53   x=32    y=50    width=8     height=12    xoffset=1     yoffset=5     xadvance=10    page=0  chnl=0
char id=54   x=41    y=33    width=8     height=12    xoffset=1     yoffset=5     xadvance=10    page=0  chnl=0
char id=55   x=25    y=84    width=10    height=12    xoffset=0     yoffset=5     xadvance=10    page=0  chnl=0
char id=56   x=27    y=100   width=8     height=12    xoffset=1     yoffset=5     xadvance=10    page=0  chnl=0
char id=57   x=43    y=2     width=8     height=12    xoffset=1     yoffset=5     xadvance=10    page=0  chnl=0
char id=58   x=36    y=2     width=3     height=9     xoffset=1     yoffset=8     xadvance=5     page=0  chnl=0
char id=59   x=39    y=66    width=4     height=14    xoffset=1     yoffset=7     xadvance=5     page=0  chnl=0
char id=60   x=27    y=116   width=9     height=7     xoffset=0     yoffset=8     xadvance=9     page=0  chnl=0
char id=61   x=43    y=18    width=9     height=3     xoffset=0     yoffset=10    xadvance=9     page=0  chnl=0
char id=62   x=55    y=2     width=9     height=7     xoffset=0     yoffset=8     xadvance=9     page=0  chnl=0
char id=63   x=39    y=84    width=8     height=14    xoffset=0     yoffset=3     xadvance=9     page=0  chnl=0
char id=64   x=40    y=102   width=16    height=17    xoffset=1     yoffset=4     xadvance=18    page=0  chnl=0
char id=65   x=44    y=49    width=13    height=12    xoffset=0     yoffset=5     xadvance=13    page=0  chnl=0
char id=66   x=47    y=65    width=13    height=12    xoffset=0     yoffset=5     xadvance=12    page=0  chnl=0
char id=67   x=51    y=81    width=10    height=13    xoffset=1     yoffset=4     xadvance=11    page=0  chnl=0
char id=68   x=53    y=25    width=12    height=12    xoffset=0     yoffset=5     xadvance=13    page=0  chnl=0
char id=69   x=68    y=2     width=11    height=12    xoffset=0     yoffset=5     xadvance=11    page=0  chnl=0
char id=70   x=61    y=41    width=10    height=12    xoffset=0     yoffset=5     xadvance=10    page=0  chnl=0
char id=71   x=69    y=18    width=11    height=12    xoffset=1     yoffset=5     xadvance=12    page=0  chnl=0
char id=72   x=83    y=2     width=14    height=12    xoffset=0     yoffset=5     xadvance=14    page=0  chnl=0
char id=73   x=64    y=57    width=6     height=12    xoffset=0     yoffset=5     xadvance=7     page=0  chnl=0
char id=74   x=60    y=98    width=9     height=16    xoffset=-2    yoffset=5     xadvance=7     page=0  chnl=0
char id=75   x=65    y=73    width=13    height=12    xoffset=0     yoffset=5     xadvance=12    page=0  chnl=0
char id=76   x=74    y=57    width=10    height=12    xoffset=0     yoffset=5     xadvance=10    page=0  chnl=0
char id=77   x=75    y=34    width=17    height=12    xoffset=0     yoffset=5     xadvance=17    page=0  chnl=0
char id=78   x=84    y=18    width=13    height=12    xoffset=0     yoffset=5     xadvance=13    page=0  chnl=0
char id=79   x=73    y=89    width=10    height=12    xoffset=1     yoffset=5     xadvance=12    page=0  chnl=0
char id=80   x=82    y=73    width=10    height=12    xoffset=0     yoffset=5     xadvance=11    page=0  chnl=0
char id=81   x=88    y=50    width=13    height=15    xoffset=1     yoffset=5     xadvance=12    page=0  chnl=0
char id=82   x=96    y=34    width=13    height=12    xoffset=0     yoffset=5     xadvance=12    page=0  chnl=0
char id=83   x=73    y=105   width=9     height=12    xoffset=0     yoffset=5     xadvance=10    page=0  chnl=0
char id=84   x=86    y=105   width=12    height=12    xoffset=0     yoffset=5     xadvance=12    page=0  chnl=0
char id=85   x=87    y=89    width=13    height=12    xoffset=0     yoffset=5     xadvance=13    page=0  chnl=0
char id=86   x=96    y=69    width=13    height=12    xoffset=0     yoffset=5     xadvance=13    page=0  chnl=0
char id=87   x=105   y=50    width=17    height=12    xoffset=0     yoffset=5     xadvance=17    page=0  chnl=0
char id=88   x=102   y=105   width=13    height=12    xoffset=0     yoffset=5     xadvance=13    page=0  chnl=0
char id=89   x=104   y=85    width=12    height=12    xoffset=0     yoffset=5     xadvance=12    page=0  chnl=0
char id=90   x=113   y=66    width=11    height=12    xoffset=0     yoffset=5     xadvance=11    page=0  chnl=0
char id=91   x=119   y=101   width=6     height=18    xoffset=1     yoffset=2     xadvance=7     page=0  chnl=0
char id=92   x=101   y=2     width=9     height=19    xoffset=0     yoffset=1     xadvance=9     page=0  chnl=0
char id=93   x=113   y=25    width=6     height=18    xoffset=-1    yoffset=2     xadvance=6     page=0  chnl=0
char id=94   x=120   y=82    width=9     height=9     xoffset=0     yoffset=2     xadvance=10    page=0  chnl=0
char id=95   x=120   y=95    width=10    height=1     xoffset=0     yoffset=18    xadvance=10    page=0  chnl=0
char id=96   x=101   y=25    width=6     height=5     xoffset=-1    yoffset=2     xadvance=6     page=0  chnl=0
char id=97   x=114   y=2     width=10    height=9     xoffset=0     yoffset=8     xadvance=10    page=0  chnl=0
char id=98   x=129   y=100   width=11    height=15    xoffset=-1    yoffset=2     xadvance=11    page=0  chnl=0
char id=99   x=123   y=15    width=8     height=9     xoffset=1     yoffset=8     xadvance=9     page=0  chnl=0
char id=100  x=123   y=28    width=10    height=15    xoffset=1     yoffset=2     xadvance=11    page=0  chnl=0
char id=101  x=128   y=2     width=8     height=9     xoffset=1     yoffset=8     xadvance=10    page=0  chnl=0
char id=102  x=126   y=47    width=9     height=15    xoffset=0     yoffset=2     xadvance=7     page=0  chnl=0
char id=103  x=133   y=66    width=11    height=14    xoffset=0     yoffset=8     xadvance=11    page=0  chnl=0
char id=104  x=137   y=15    width=12    height=15    xoffset=0     yoffset=2     xadvance=12    page=0  chnl=0
char id=105  x=139   y=34    width=6     height=14    xoffset=0     yoffset=3     xadvance=5     page=0  chnl=0
char id=106  x=144   y=84    width=8     height=19    xoffset=-3    yoffset=3     xadvance=6     page=0  chnl=0
char id=107  x=144   y=107   width=11    height=15    xoffset=0     yoffset=2     xadvance=11    page=0  chnl=0
char id=108  x=148   y=52    width=6     height=15    xoffset=0     yoffset=2     xadvance=6     page=0  chnl=0
char id=109  x=148   y=71    width=17    height=9     xoffset=0     yoffset=8     xadvance=17    page=0  chnl=0
char id=110  x=140   y=2     width=12    height=9     xoffset=0     yoffset=8     xadvance=12    page=0  chnl=0
char id=111  x=149   y=34    width=9     height=9     xoffset=1     yoffset=8     xadvance=11    page=0  chnl=0
char id=112  x=153   y=15    width=10    height=14    xoffset=0     yoffset=8     xadvance=11    page=0  chnl=0
char id=113  x=156   y=84    width=11    height=14    xoffset=1     yoffset=8     xadvance=11    page=0  chnl=0
char id=114  x=156   y=2     width=9     height=9     xoffset=0     yoffset=8     xadvance=9     page=0  chnl=0
char id=115  x=158   y=47    width=8     height=9     xoffset=0     yoffset=8     xadvance=8     page=0  chnl=0
char id=116  x=169   y=60    width=8     height=12    xoffset=0     yoffset=5     xadvance=7     page=0  chnl=0
char id=117  x=162   y=33    width=11    height=9     xoffset=0     yoffset=8     xadvance=11    page=0  chnl=0
char id=118  x=170   y=46    width=11    height=9     xoffset=0     yoffset=8     xadvance=10    page=0  chnl=0
char id=119  x=167   y=15    width=15    height=9     xoffset=0     yoffset=8     xadvance=14    page=0  chnl=0
char id=120  x=169   y=2     width=11    height=9     xoffset=0     yoffset=8     xadvance=10    page=0  chnl=0
char id=121  x=177   y=28    width=12    height=14    xoffset=-1    yoffset=8     xadvance=10    page=0  chnl=0
char id=122  x=184   y=2     width=9     height=9     xoffset=0     yoffset=8     xadvance=9     page=0  chnl=0
char id=123  x=159   y=102   width=7     height=19    xoffset=0     yoffset=1     xadvance=7     page=0  chnl=0
char id=124  x=170   y=102   width=2     height=20    xoffset=1     yoffset=1     xadvance=5     page=0  chnl=0
char id=125  x=171   y=76    width=7     height=19    xoffset=0     yoffset=1     xadvance=7     page=0  chnl=0
char id=126  x=129   y=119   width=10    height=4     xoffset=0     yoffset=8     xadvance=10    page=0  chnl=0
char id=264  x=176   y=99    width=10    height=18    xoffset=1     yoffset=-1    xadvance=11    page=0  chnl=0
char id=265  x=182   y=59    width=8     height=15    xoffset=1     yoffset=2     xadvance=9     page=0  chnl=0
char id=284  x=193   y=15    width=11    height=18    xoffset=1     yoffset=-1    xadvance=12    page=0  chnl=0
char id=285  x=190   y=78    width=11    height=20    xoffset=0     yoffset=2     xadvance=10    page=0  chnl=0
char id=292  x=193   y=37    width=14    height=18    xoffset=0     yoffset=-1    xadvance=14    page=0  chnl=0
char id=293  x=190   y=102   width=12    height=20    xoffset=0     yoffset=-3    xadvance=12    page=0  chnl=0
char id=348  x=208   y=2     width=9     height=18    xoffset=0     yoffset=-1    xadvance=10    page=0  chnl=0
char id=349  x=194   y=59    width=8     height=15    xoffset=0     yoffset=2     xadvance=8     page=0  chnl=0
char id=364  x=205   y=78    width=13    height=18    xoffset=0     yoffset=-1    xadvance=13    page=0  chnl=0
char id=365  x=206   y=59    width=11    height=14    xoffset=0     yoffset=3     xadvance=11    page=0  chnl=0
kernings count=0
